%YAML 1.1
%TAG !u! tag:unity3d.com,2011:
--- !u!21 &2100000
Material:
  serializedVersion: 6
  m_ObjectHideFlags: 0
  m_CorrespondingSourceObject: {fileID: 0}
  m_PrefabInstance: {fileID: 0}
  m_PrefabAsset: {fileID: 0}
  m_Name: FBH_FX_portal41_2
  m_Shader: {fileID: 4800000, guid: e3c7234eb71ad4f419ca7c3282584398, type: 3}
  m_ShaderKeywords: _COLORSWITCH_KEY0 _KEYWORD0_KEY0 _SWITCH_KEY0
  m_LightmapFlags: 0
  m_EnableInstancingVariants: 1
  m_DoubleSidedGI: 0
  m_CustomRenderQueue: 3003
  stringTagMap: {}
  disabledShaderPasses: []
  m_SavedProperties:
    serializedVersion: 3
    m_TexEnvs:
    - _ATex:
        m_Texture: {fileID: 2800000, guid: 52cc9e95daf6e214b8e8b28b232fd172, type: 3}
        m_Scale: {x: 1, y: 1}
        m_Offset: {x: 0, y: 0}
    - _MainTex:
        m_Texture: {fileID: 2800000, guid: 1b58d66854585cb45a49a0048e0c0e95, type: 3}
        m_Scale: {x: 1, y: 1}
        m_Offset: {x: 0, y: 0}
    - _MainTex2:
        m_Texture: {fileID: 2800000, guid: 1b58d66854585cb45a49a0048e0c0e95, type: 3}
        m_Scale: {x: 1, y: 1}
        m_Offset: {x: 0, y: 0}
    - _Main_Tex:
        m_Texture: {fileID: 0}
        m_Scale: {x: 1, y: 1}
        m_Offset: {x: 0, y: 0}
    - _Mask:
        m_Texture: {fileID: 10300, guid: 0000000000000000f000000000000000, type: 0}
        m_Scale: {x: 1, y: 1}
        m_Offset: {x: 0, y: 0}
    - _OpacityMaskTex:
        m_Texture: {fileID: 10300, guid: 0000000000000000f000000000000000, type: 0}
        m_Scale: {x: 1, y: 1}
        m_Offset: {x: 0, y: 0}
    - _Particle_AE_Shockwave_09:
        m_Texture: {fileID: 2800000, guid: 1b58d66854585cb45a49a0048e0c0e95, type: 3}
        m_Scale: {x: 1, y: 1}
        m_Offset: {x: 0, y: 0}
    - _TextureSample0:
        m_Texture: {fileID: 2800000, guid: 9b1bacab0267386478c7aee90bf74c2e, type: 3}
        m_Scale: {x: 1, y: 1}
        m_Offset: {x: 0, y: 0}
    - _TextureSample1:
        m_Texture: {fileID: 2800000, guid: 802e94f7fa031bc4793bf60fbc8f17db, type: 3}
        m_Scale: {x: 1, y: 1}
        m_Offset: {x: 0, y: 0}
    - _TextureSample2:
        m_Texture: {fileID: 2800000, guid: 7b14c5e5c041d1f44beab390d7b37b1d, type: 3}
        m_Scale: {x: 1, y: 1}
        m_Offset: {x: 0, y: 0}
    - _WarpTex:
        m_Texture: {fileID: 2800000, guid: 242bcd8249e24b3488c22fb937263555, type: 3}
        m_Scale: {x: 1, y: 1}
        m_Offset: {x: 0, y: 0}
    - _pnghut_vortexwhirlpoolspiralcircleblackandwhitesky:
        m_Texture: {fileID: 2800000, guid: 7a1a06bf8c3921142bbcfeb49c41aed6, type: 3}
        m_Scale: {x: 1, y: 1}
        m_Offset: {x: 0, y: 0}
    - _texcoord:
        m_Texture: {fileID: 0}
        m_Scale: {x: 1, y: 1}
        m_Offset: {x: 0, y: 0}
    m_Floats:
    - _2Str: 0.2
    - _ABright: 10
    - _ABright2: 5
    - _Bright: 3.28
    - _CentraOpacity: 0
    - _ColorSwitch: 0
    - _Contrast: 1
    - _DFD: 0
    - _DisNoiseMu: 0.01
    - _DisNoiseScale: 9.57
    - _DisNoiseSpeef: 0.1
    - _EdgeLength: 2
    - _Emission: 1
    - _FlashSpeed: 4.31
    - _Float1: -0.1
    - _Higtlight: 13.8
    - _Keyword0: 0
    - _L: 1
    - _NM: 0.38
    - _NS: 10
    - _NSp: 0.84
    - _NoiseMu: 0.005
    - _NoiseRoSpeed: 0
    - _NoiseScale: 12
    - _NoiseSpeed: -0.1
    - _OffsetSpeed: 0
    - _Opacity: 1
    - _RoSpeed: -0.1
    - _RoSpeed2: -0.05
    - _RoSpeed3: -0.01
    - _Saturation: 0.36
    - _Saturation1: 0.19
    - _SmMax: 0
    - _Smoothness: 0.4867466
    - _SmoothnessMax: 0.478
    - _SmoothnessMin: 0.1
    - _Switch: 1
    - _TessPhongStrength: 0.5
    - _TexWarp: 14.58
    - _VertexOffset: 0.1
    - _WarpTexBright: 1.83
    - _WarpTexBrightHigh: 200
    - _ZWrite: 0
    - __dirty: 0
    - _sWITCH: 0
    m_Colors:
    - _AColor0: {r: 10.853759, g: 1.7568619, b: 23.968628, a: 0}
    - _CentreColor0: {r: 1.1486983, g: 1.0478827, b: 0.86152375, a: 0}
    - _Color: {r: 1, g: 1, b: 1, a: 1}
    - _Color0: {r: 0.030037377, g: 0.10039043, b: 0.254717, a: 0}
    - _Color00: {r: 0, g: 0, b: 0, a: 0}
    - _Color01: {r: 0, g: 3.706806, b: 5.3403134, a: 0}
    - _Color1: {r: 0, g: 1.380392, b: 2, a: 0}
