%YAML 1.1
%TAG !u! tag:unity3d.com,2011:
--- !u!21 &2100000
Material:
  serializedVersion: 6
  m_ObjectHideFlags: 0
  m_CorrespondingSourceObject: {fileID: 0}
  m_PrefabInstance: {fileID: 0}
  m_PrefabAsset: {fileID: 0}
  m_Name: FBH_FX_portal42
  m_Shader: {fileID: 4800000, guid: e3c7234eb71ad4f419ca7c3282584398, type: 3}
  m_ShaderKeywords: _COLORSWITCH_KEY1 _KEYWORD0_KEY0 _SWITCH_KEY0
  m_LightmapFlags: 0
  m_EnableInstancingVariants: 1
  m_DoubleSidedGI: 0
  m_CustomRenderQueue: 3002
  stringTagMap: {}
  disabledShaderPasses: []
  m_SavedProperties:
    serializedVersion: 3
    m_TexEnvs:
    - _ATex:
        m_Texture: {fileID: 2800000, guid: 52cc9e95daf6e214b8e8b28b232fd172, type: 3}
        m_Scale: {x: 1, y: 1}
        m_Offset: {x: 0, y: 0}
    - _MainTex:
        m_Texture: {fileID: 2800000, guid: 1b58d66854585cb45a49a0048e0c0e95, type: 3}
        m_Scale: {x: 1, y: 1}
        m_Offset: {x: 0, y: 0}
    - _MainTex2:
        m_Texture: {fileID: 2800000, guid: 1b58d66854585cb45a49a0048e0c0e95, type: 3}
        m_Scale: {x: 1, y: 1}
        m_Offset: {x: 0, y: 0}
    - _Mask:
        m_Texture: {fileID: 10300, guid: 0000000000000000f000000000000000, type: 0}
        m_Scale: {x: 1, y: 1}
        m_Offset: {x: 0, y: 0}
    - _OpacityMaskTex:
        m_Texture: {fileID: 10300, guid: 0000000000000000f000000000000000, type: 0}
        m_Scale: {x: 1, y: 1}
        m_Offset: {x: 0, y: 0}
    - _Particle_AE_Shockwave_09:
        m_Texture: {fileID: 2800000, guid: 1b58d66854585cb45a49a0048e0c0e95, type: 3}
        m_Scale: {x: 1, y: 1}
        m_Offset: {x: 0, y: 0}
    - _TextureSample1:
        m_Texture: {fileID: 2800000, guid: 802e94f7fa031bc4793bf60fbc8f17db, type: 3}
        m_Scale: {x: 1, y: 1}
        m_Offset: {x: 0, y: 0}
    - _TextureSample2:
        m_Texture: {fileID: 2800000, guid: c9f709656cf55cc4b89f4ae6e5ba7133, type: 3}
        m_Scale: {x: 1, y: 1}
        m_Offset: {x: 0, y: 0}
    - _WarpTex:
        m_Texture: {fileID: 2800000, guid: 1a10bc08a43863e44a66b80ba40c352e, type: 3}
        m_Scale: {x: 1, y: 1}
        m_Offset: {x: 0, y: 0}
    - _pnghut_vortexwhirlpoolspiralcircleblackandwhitesky:
        m_Texture: {fileID: 2800000, guid: b3b457fb405464226af09a1e4be9c8f8, type: 3}
        m_Scale: {x: 1, y: 1}
        m_Offset: {x: 0, y: 0}
    - _texcoord:
        m_Texture: {fileID: 0}
        m_Scale: {x: 1, y: 1}
        m_Offset: {x: 0, y: 0}
    m_Floats:
    - _2Str: 0.2
    - _ABright: 10
    - _ABright2: 5
    - _Bright: 2
    - _CentraOpacity: 0
    - _ColorSwitch: 1
    - _Contrast: 0.8
    - _DisNoiseMu: 0.01
    - _DisNoiseScale: 9.57
    - _DisNoiseSpeef: 0.1
    - _EdgeLength: 2
    - _Emission: 1
    - _FlashSpeed: 0
    - _Float1: 4.23
    - _Higtlight: 6
    - _Keyword0: 0
    - _NoiseMu: 0.01
    - _NoiseRoSpeed: 0
    - _NoiseScale: 7
    - _NoiseSpeed: -0.1
    - _OffsetSpeed: 0
    - _Opacity: 1
    - _RoSpeed: -0.1
    - _RoSpeed2: -0.05
    - _RoSpeed3: -0.01
    - _Saturation: 1
    - _Saturation1: 0
    - _Smoothness: 0.1
    - _SmoothnessMax: 0
    - _SmoothnessMin: 0
    - _Switch: 1
    - _TessPhongStrength: 0.5
    - _TexWarp: 14.25
    - _VertexOffset: 0.1
    - _WarpTexBright: 0
    - _WarpTexBrightHigh: 8
    - _ZWrite: 0
    - __dirty: 0
    - _sWITCH: 0
    m_Colors:
    - _AColor0: {r: 0, g: 3.473212, b: 5.992157, a: 0}
    - _CentreColor0: {r: 0, g: 0, b: 0, a: 0}
    - _Color0: {r: 0.030037377, g: 0.10039043, b: 0.254717, a: 0}
    - _Color00: {r: 0, g: 0, b: 0, a: 0}
    - _Color01: {r: 0, g: 3.706806, b: 5.3403134, a: 0}
    - _Color1: {r: 0, g: 1.380392, b: 2, a: 0}
